A Fully Customizable Textbook for Introductory Statistics/Data Science
…
class: center, middle

# Chapter 5: Data Wrangling

---

### `gapminder` data frame in the `gapminder` package

```r
library(gapminder)
gapminder
```

```
# A tibble: 1,704 × 6
       country continent  year lifeExp      pop gdpPercap
        <fctr>    <fctr> <int>   <dbl>    <int>     <dbl>
1  Afghanistan      Asia  1952  28.801  8425333  779.4453
2  Afghanistan      Asia  1957  30.332  9240934  820.8530
3  Afghanistan      Asia  1962  31.997 10267083  853.1007
4  Afghanistan      Asia  1967  34.020 11537966  836.1971
5  Afghanistan      Asia  1972  36.088 13079460  739.9811
6  Afghanistan      Asia  1977  38.438 14880372  786.1134
7  Afghanistan      Asia  1982  39.854 12881816  978.0114
8  Afghanistan      Asia  1987  40.822 13867957  852.3959
9  Afghanistan      Asia  1992  41.674 16317921  649.3414
10 Afghanistan      Asia  1997  41.763 22227415  635.3414
# ... with 1,694 more rows
```
…
---

## Logical operators

- Use `|` to check for any in multiple filters being true:
--

```r
gapminder %>% 
  filter(year == 2002 | continent == "Europe")
```
--

```
# A tibble: 472 × 6
       country continent  year lifeExp      pop gdpPercap
        <fctr>    <fctr> <int>   <dbl>    <int>     <dbl>
1  Afghanistan      Asia  2002  42.129 25268405  726.7341
2      Albania    Europe  1952  55.230  1282697 1601.0561
3      Albania    Europe  1957  59.280  1476505 1942.2842
4      Albania    Europe  1962  64.820  1728137 2312.8890
5      Albania    Europe  1967  66.220  1984060 2760.1969
6      Albania    Europe  1972  67.690  2263554 3313.4222
7      Albania    Europe  1977  68.930  2509048 3533.0039
8      Albania    Europe  1982  70.420  2780097 3630.8807
9      Albania    Europe  1987  72.000  3075321 3738.9327
10     Albania    Europe  1992  71.581  3326498 2497.4379
# ... with 462 more rows
```

---

## Logical operators

- Use `&` or `,` to check for all of multiple filters being true:
--

```r
gapminder %>% 
  filter(year == 2002, continent == "Europe")
```

```
# A tibble: 30 × 6
                  country continent  year lifeExp      pop gdpPercap
                   <fctr>    <fctr> <int>   <dbl>    <int>     <dbl>
1                 Albania    Europe  2002  75.651  3508512  4604.212
2                 Austria    Europe  2002  78.980  8148312 32417.608
3                 Belgium    Europe  2002  78.320 10311970 30485.884
4  Bosnia and Herzegovina    Europe  2002  74.090  4165416  6018.975
5                Bulgaria    Europe  2002  72.140  7661799  7696.778
6                 Croatia    Europe  2002  74.876  4481020 11628.389
7          Czech Republic    Europe  2002  75.510 10256295 17596.210
8                 Denmark    Europe  2002  77.180  5374693 32166.500
9                 Finland    Europe  2002  78.370  5193039 28204.591
10                 France    Europe  2002  79.590 59925035 28926.032
# ... with 20 more rows
```
…
---

## `arrange()`

- Reorders the rows in a data frame based on the values of one or more variables
--

```r
gapminder %>%
  arrange(year, country)
```

```
# A tibble: 1,704 × 6
       country continent  year lifeExp      pop  gdpPercap
        <fctr>    <fctr> <int>   <dbl>    <int>      <dbl>
1  Afghanistan      Asia  1952  28.801  8425333   779.4453
2      Albania    Europe  1952  55.230  1282697  1601.0561
3      Algeria    Africa  1952  43.077  9279525  2449.0082
4       Angola    Africa  1952  30.015  4232095  3520.6103
5    Argentina  Americas  1952  62.485 17876956  5911.3151
6    Australia   Oceania  1952  69.120  8691212 10039.5956
7      Austria    Europe  1952  66.800  6927772  6137.0765
8      Bahrain      Asia  1952  50.939   120447  9867.0848
9   Bangladesh      Asia  1952  37.484 46886859   684.2442
10     Belgium    Europe  1952  68.000  8730405  8343.1051
# ... with 1,694 more rows
```
…
- `arrange` is used for sorting

---

## Don't mix up `arrange` and `group_by`

This doesn't really do anything useful

```r
gapminder %>% group_by(year)
```

```
Source: local data frame [1,704 x 6]
Groups: year [12]

       country continent  year lifeExp      pop gdpPercap
        <fctr>    <fctr> <int>   <dbl>    <int>     <dbl>
1  Afghanistan      Asia  1952  28.801  8425333  779.4453
2  Afghanistan      Asia  1957  30.332  9240934  820.8530
3  Afghanistan      Asia  1962  31.997 10267083  853.1007
4  Afghanistan      Asia  1967  34.020 11537966  836.1971
5  Afghanistan      Asia  1972  36.088 13079460  739.9811
6  Afghanistan      Asia  1977  38.438 14880372  786.1134
7  Afghanistan      Asia  1982  39.854 12881816  978.0114
8  Afghanistan      Asia  1987  40.822 13867957  852.3959
9  Afghanistan      Asia  1992  41.674 16317921  649.3414
10 Afghanistan      Asia  1997  41.763 22227415  635.3414
# ... with 1,694 more rows
```

---

## Don't mix up `arrange` and `group_by`

But this does

```r
gapminder %>% arrange(year)
```

```
# A tibble: 1,704 × 6
       country continent  year lifeExp      pop  gdpPercap
        <fctr>    <fctr> <int>   <dbl>    <int>      <dbl>
1  Afghanistan      Asia  1952  28.801  8425333   779.4453
2      Albania    Europe  1952  55.230  1282697  1601.0561
3      Algeria    Africa  1952  43.077  9279525  2449.0082
4       Angola    Africa  1952  30.015  4232095  3520.6103
5    Argentina  Americas  1952  62.485 17876956  5911.3151
6    Australia   Oceania  1952  69.120  8691212 10039.5956
7      Austria    Europe  1952  66.800  6927772  6137.0765
8      Bahrain      Asia  1952  50.939   120447  9867.0848
9   Bangladesh      Asia  1952  37.484 46886859   684.2442
10     Belgium    Europe  1952  68.000  8730405  8343.1051
# ... with 1,694 more rows
```
…
---

### Does cost of living in a state relate to whether police officers live in the cities they patrol?  What about state political ideology?

```r
library(fivethirtyeight)
library(readr)
ideology <- read_csv("https://ismayc.github.io/Effective-Data-Storytelling-using-the-tidyverse/datasets/ideology.csv")
police_join <- inner_join(x = police_locals, y = ideology, by = "city")
police_join
```

```
# A tibble: 75 × 10
           city force_size       all      white non_white     black
          <chr>      <int>     <dbl>      <dbl>     <dbl>     <dbl>
1      New York      32300 0.6179567 0.44638656 0.7644189 0.7708914
2       Chicago      12120 0.8750000 0.87196262 0.8774003 0.8974057
3   Los Angeles      10100 0.2282178 0.15277778 0.2638484 0.3873874
4    Washington       9340 0.1156317 0.05677419 0.1573651 0.1701891
5       Houston       7700 0.2922078 0.17373461 0.3992583 0.3663793
6  Philadelphia       6045 0.8354012 0.77689873 0.8994801 0.9246575
7       Phoenix       4475 0.3117318 0.27080182 0.4273504 0.5217391
8     San Diego       4460 0.3621076 0.37298387 0.3484848 0.5384615
9        Dallas       3605 0.1914008 0.17150396 0.2134503 0.2146341
10      Detroit       3265 0.3705972 0.08196721 0.5427873 0.5680000
# ... with 65 more rows, and 4 more variables: hispanic <dbl>,
#   asian <dbl>, state <chr>, state_ideology <chr>
```

---

```r
cost_of_living <- read_csv("https://ismayc.github.io/Effective-Data-Storytelling-using-the-tidyverse/datasets/cost_of_living.csv")
police_join_cost <- inner_join(x = police_join, y = cost_of_living, by = "state")
police_join_cost
```

```
# A tibble: 75 × 12
           city force_size       all      white non_white     black
          <chr>      <int>     <dbl>      <dbl>     <dbl>     <dbl>
1      New York      32300 0.6179567 0.44638656 0.7644189 0.7708914
2       Chicago      12120 0.8750000 0.87196262 0.8774003 0.8974057
3   Los Angeles      10100 0.2282178 0.15277778 0.2638484 0.3873874
4    Washington       9340 0.1156317 0.05677419 0.1573651 0.1701891
5       Houston       7700 0.2922078 0.17373461 0.3992583 0.3663793
6  Philadelphia       6045 0.8354012 0.77689873 0.8994801 0.9246575
7       Phoenix       4475 0.3117318 0.27080182 0.4273504 0.5217391
8     San Diego       4460 0.3621076 0.37298387 0.3484848 0.5384615
9        Dallas       3605 0.1914008 0.17150396 0.2134503 0.2146341
10      Detroit       3265 0.3705972 0.08196721 0.5427873 0.5680000
# ... with 65 more rows, and 6 more variables: hispanic <dbl>,
#   asian <dbl>, state <chr>, state_ideology <chr>, index <dbl>,
#   col_group <chr>
```
…
